Examining Work With Data in STEM Education Through the Lens of Engagement Theory: A Person-Oriented Approach Using an Experience Sampling Method
…
extract_LL_mplus()

## # A tibble: 119 x 3
##    LL           seed m_iterations
##  * <fct>       <dbl> <chr>       
##  1 -19453.381 231281 542         
##  2 -19453.381 897782 545         
##  3 -19453.381 155622 507         
##  4 -19453.381 879211 453         
##  5 -19453.381 192071 142         
##  6 -19453.381 507154 387         
##  7 -19453.381 674171 195         
##  8 -19453.381 316165 299         
##  9 -19453.381 374219 353         
## 10 -19453.381 783102 433         
## # ... with 109 more rows
…
extract_LL_mplus()

## # A tibble: 80 x 3
##    LL           seed m_iterations
##  * <chr>       <dbl> <chr>       
##  1 -19196.328 415931 10          
##  2 -19196.328 260953 589         
##  3 -19196.328 576220 115         
##  4 -19196.328 329127 185         
##  5 -19196.328 391179 78          
##  6 -19196.328 352277 42          
##  7 -19196.328 443442 380         
##  8 -19196.328 518828 432         
##  9 -19196.328  36714 201         
## 10 -19196.328 456213 160         
## # ... with 70 more rows
…
extract_LL_mplus()

## # A tibble: 82 x 3
##    LL           seed m_iterations
##  * <chr>       <dbl> <chr>       
##  1 -18817.934 152496 123         
##  2 -18817.934 602797 336         
##  3 -18817.934 432148 30          
##  4 -18817.934 399848 220         
##  5 -18837.053 387701 275         
##  6 -18858.428 850545 357         
##  7 -18858.428 298275 418         
##  8 -18858.428 626891 32          
##  9 -18944.968 823392 479         
## 10 -18944.968 147440 514         
## # ... with 72 more rows
…
extract_LL_mplus()

## # A tibble: 64 x 3
##    LL           seed m_iterations
##  * <chr>       <dbl> <chr>       
##  1 -18648.785   1548 384         
##  2 -18648.785 282464 283         
##  3 -18668.802 529496 343         
##  4 -18695.729  49221 254         
##  5 -18695.729 153394 429         
##  6 -18695.729 741888 138         
##  7 -18695.729  85114 385         
##  8 -18695.729 173191 422         
##  9 -18695.729 436460 89          
## 10 -18695.729 153942 31          
## # ... with 54 more rows
…
extract_LL_mplus()

## # A tibble: 52 x 3
##    LL           seed m_iterations
##  * <chr>       <dbl> <chr>       
##  1 -18407.232 475420 71          
##  2 -18407.232 871438 561         
##  3 -18469.834 597614 284         
##  4 -18469.834 830570 369         
##  5 -18469.834 283492 435         
##  6 -18469.834 260953 589         
##  7 -18518.118 153394 429         
##  8 -18634.678 950604 172         
##  9 -18660.958 922596 456         
## 10 -18662.856 160326 546         
## # ... with 42 more rows
…
extract_LL_mplus()

## # A tibble: 120 x 3
##    LL           seed m_iterations
##  * <chr>       <dbl> <chr>       
##  1 -18897.062 154575 539         
##  2 -18897.062 606576 151         
##  3 -18897.062 746978 410         
##  4 -18897.062 107446 12          
##  5 -18897.062  30098 209         
##  6 -18897.062 871851 257         
##  7 -18897.062 491970 563         
##  8 -18897.062  76451 211         
##  9 -18897.062 152496 123         
## 10 -18897.062 458181 189         
## # ... with 110 more rows
…
extract_LL_mplus()

## # A tibble: 119 x 3
##    LL           seed m_iterations
##  * <chr>       <dbl> <chr>       
##  1 -18659.676 286735 175         
##  2 -18659.676 349562 359         
##  3 -18659.676 568859 49          
##  4 -18686.131 562716 300         
##  5 -18690.761 475420 71          
##  6 -18690.761 147440 514         
##  7 -18690.761 279850 555         
##  8 -18690.761 667250 318         
##  9 -18690.761 153394 429         
## 10 -18709.289 327475 518         
## # ... with 109 more rows
…
extract_LL_mplus()

## # A tibble: 114 x 3
##    LL           seed m_iterations
##  * <chr>       <dbl> <chr>       
##  1 -18474.834 154575 539         
##  2 -18474.834 436460 89          
##  3 -18474.834 746978 410         
##  4 -18474.834  85114 385         
##  5 -18479.167 217130 443         
##  6 -18479.167 539389 544         
##  7 -18481.815 407108 366         
##  8 -18481.815 165853 105         
##  9 -18481.815  73576 213         
## 10 -18481.815 471398 74          
## # ... with 104 more rows

m1_6 <- estimate_profiles_mplus(df,  
                             dm_cog_eng, dm_beh_eng, dm_aff_eng, dm_challenge, dm_competence,
                             starts = c(600, 120),
                             model = 2,
                             n_profiles = 6,
                             include_BLRT=TRUE,
                             n_processors = 8, remove_tmp_files = FALSE)

extract_LL_mplus()

## # A tibble: 104 x 3
##    LL           seed m_iterations
##  * <chr>       <dbl> <chr>       
##  1 -17098.434 344422 296         
##  2 -17216.914 226322 478         
##  3 -17714.856 853195 431         
##  4 -18285.363 153053 378         
##  5 -18304.150 211281 292         
##  6 -18304.150 529496 343         
##  7 -18320.492 350608 334         
##  8 -18323.206 691234 250         
##  9 -18337.703 425929 508         
## 10 -18337.703 153394 429         
## # ... with 94 more rows
…
extract_LL_mplus()

## # A tibble: 97 x 3
##    LL           seed m_iterations
##  * <chr>       <dbl> <chr>       
##  1 -17035.006  85734 411         
##  2 -17035.006 344422 296         
##  3 -18213.406 939021 8           
##  4 -18214.792 458181 189         
##  5 -18217.063 715255 523         
##  6 -18227.574 126371 526         
##  7 -18227.574 391949 295         
##  8 -18234.603  30098 209         
##  9 -18234.603 150531 154         
## 10 -18234.603 790452 303         
## # ... with 87 more rows
