Specific MPlus model solutions via tidyLPA - new
…
extract_LL_mplus()

## # A tibble: 119 x 3
##    LL           seed m_iterations
##  * <fct>       <dbl> <chr>       
##  1 -19453.381 231281 542         
##  2 -19453.381 879211 453         
##  3 -19453.381 897782 545         
##  4 -19453.381 155622 507         
##  5 -19453.381 192071 142         
##  6 -19453.381 507154 387         
##  7 -19453.381 674171 195         
##  8 -19453.381 316165 299         
##  9 -19453.381 374219 353         
## 10 -19453.381 783102 433         
## # ... with 109 more rows
…
extract_LL_mplus()

## # A tibble: 80 x 3
##    LL           seed m_iterations
##  * <chr>       <dbl> <chr>       
##  1 -19196.328 415931 10          
##  2 -19196.328 260953 589         
##  3 -19196.328 576220 115         
##  4 -19196.328 329127 185         
##  5 -19196.328 391179 78          
##  6 -19196.328 352277 42          
##  7 -19196.328 443442 380         
##  8 -19196.328 518828 432         
##  9 -19196.328  36714 201         
## 10 -19196.328 456213 160         
## # ... with 70 more rows
…
extract_LL_mplus()

## # A tibble: 82 x 3
##    LL           seed m_iterations
##  * <chr>       <dbl> <chr>       
##  1 -18817.934 152496 123         
##  2 -18817.934 602797 336         
##  3 -18817.934 432148 30          
##  4 -18817.934 399848 220         
##  5 -18837.053 387701 275         
##  6 -18858.428 850545 357         
##  7 -18858.428 298275 418         
##  8 -18858.428 626891 32          
##  9 -18944.968 823392 479         
## 10 -18944.968 147440 514         
## # ... with 72 more rows
…
extract_LL_mplus()

## # A tibble: 64 x 3
##    LL           seed m_iterations
##  * <chr>       <dbl> <chr>       
##  1 -18648.785   1548 384         
##  2 -18648.785 282464 283         
##  3 -18668.802 529496 343         
##  4 -18695.729  49221 254         
##  5 -18695.729 153394 429         
##  6 -18695.729 741888 138         
##  7 -18695.729  85114 385         
##  8 -18695.729 173191 422         
##  9 -18695.729 436460 89          
## 10 -18695.729 153942 31          
## # ... with 54 more rows
…
extract_LL_mplus()

## # A tibble: 52 x 3
##    LL           seed m_iterations
##  * <chr>       <dbl> <chr>       
##  1 -18407.232 475420 71          
##  2 -18407.232 871438 561         
##  3 -18469.834 597614 284         
##  4 -18469.834 830570 369         
##  5 -18469.834 283492 435         
##  6 -18469.834 260953 589         
##  7 -18518.118 153394 429         
##  8 -18634.678 950604 172         
##  9 -18660.958 922596 456         
## 10 -18662.856 160326 546         
## # ... with 42 more rows
…
