Comparing MPlus model solutions via tidyLPA
…
m1_6

## # A tibble: 2,958 x 12
##    DM_COG_E DM_BEH_E DM_AFF_E DM_CHALL DM_COMPE  CPROB1  CPROB2  CPROB3
##       <dbl>    <dbl>    <dbl>    <dbl>    <dbl>   <dbl>   <dbl>   <dbl>
##  1     4.00     3.00     3.00     2.00     3.00 0.00100 0       0.0120 
##  2     3.00     3.00     3.00     1.00     4.00 0.00300 0       0.0500 
##  3     3.00     1.00     4.00     1.00     4.00 0       0       0      
##  4     3.00     1.00     3.00     3.00     4.00 0       0.00100 0      
##  5     3.00     3.00     3.00     2.00     3.00 0.00200 0       0.00400
##  6     3.00     4.00     2.00     3.00     4.00 0.896   0       0.00100
##  7     3.00     2.00     4.00     1.00     4.00 0       0       0      
##  8     3.00     3.00     3.00     3.00     4.00 0.00100 0       0.00300
##  9     3.00     3.00     4.00     1.00     4.00 0       0       0.739  
## 10     3.00     3.00     3.00     2.00     3.00 0.00200 0       0.00400
## # ... with 2,948 more rows, and 4 more variables: CPROB4 <dbl>,
## #   CPROB5 <dbl>, CPROB6 <dbl>, C <dbl>
…
